{
	"info": {
		"_postman_id": "3e9d0622-0127-423a-9351-7471e580dc0b",
		"name": "s35",
		"schema": "https://schema.getpostman.com/json/collection/v2.1.0/collection.json",
		"_exporter_id": "27193786"
	},
	"item": [
		{
			"name": "discussion",
			"item": [
				{
					"name": "POST Tasks",
					"request": {
						"method": "POST",
						"header": [],
						"body": {
							"mode": "raw",
							"raw": "{}",
							"options": {
								"raw": {
									"language": "json"
								}
							}
						},
						"url": {
							"raw": "localhost:3001/tasks",
							"host": [
								"localhost"
							],
							"port": "3001",
							"path": [
								"tasks"
							]
						}
					},
					"response": []
				},
				{
					"name": "GET all tasks",
					"request": {
						"method": "GET",
						"header": []
					},
					"response": []
				}
			]
		},
		{
			"name": "POST Users",
			"request": {
				"method": "POST",
				"header": [],
				"body": {
					"mode": "raw",
					"raw": "{\r\n    \"username\" : \"eliot\",\r\n    \"password\" : \"pogi\"\r\n}",
					"options": {
						"raw": {
							"language": "json"
						}
					}
				},
				"url": {
					"raw": "localhost:3001/signup",
					"host": [
						"localhost"
					],
					"port": "3001",
					"path": [
						"signup"
					]
				}
			},
			"response": []
		},
		{
			"name": "GET Users",
			"request": {
				"method": "GET",
				"header": []
			},
			"response": []
		}
	]
}