{
	"info": {
		"_postman_id": "c20041d6-3028-4326-8fd8-6481368688b1",
		"name": "s36",
		"schema": "https://schema.getpostman.com/json/collection/v2.1.0/collection.json",
		"_exporter_id": "27193786"
	},
	"item": [
		{
			"name": "GET allTasks",
			"request": {
				"method": "GET",
				"header": []
			},
			"response": []
		},
		{
			"name": "POST newTask",
			"request": {
				"method": "POST",
				"header": [],
				"body": {
					"mode": "raw",
					"raw": "{\r\n    \"name\" : \"Coding\"\r\n}",
					"options": {
						"raw": {
							"language": "json"
						}
					}
				},
				"url": {
					"raw": "localhost:4000/tasks/addTask",
					"host": [
						"localhost"
					],
					"port": "4000",
					"path": [
						"tasks",
						"addTask"
					]
				}
			},
			"response": []
		},
		{
			"name": "DEL taskById",
			"request": {
				"method": "DELETE",
				"header": [],
				"url": {
					"raw": "localhost:4000/tasks/task/6476c7e7aff2f7df6c8cd3c3",
					"host": [
						"localhost"
					],
					"port": "4000",
					"path": [
						"tasks",
						"task",
						"6476c7e7aff2f7df6c8cd3c3"
					]
				}
			},
			"response": []
		},
		{
			"name": "GET taskById",
			"request": {
				"method": "GET",
				"header": []
			},
			"response": []
		},
		{
			"name": "PUT updateStatus",
			"request": {
				"method": "PUT",
				"header": [],
				"body": {
					"mode": "raw",
					"raw": "",
					"options": {
						"raw": {
							"language": "json"
						}
					}
				},
				"url": {
					"raw": "localhost:4000/tasks/6476c7f7aff2f7df6c8cd3c6/complete",
					"host": [
						"localhost"
					],
					"port": "4000",
					"path": [
						"tasks",
						"6476c7f7aff2f7df6c8cd3c6",
						"complete"
					]
				}
			},
			"response": []
		}
	]
}